\relax 
\select@language{english}
\@writefile{toc}{\select@language{english}}
\@writefile{lof}{\select@language{english}}
\@writefile{lot}{\select@language{english}}
\@writefile{toc}{\contentsline {section}{\numberline {1}Systems Used}{i}}
\@writefile{toc}{\contentsline {section}{\numberline {2}Tools and Software Packages Used}{ii}}
\@writefile{toc}{\contentsline {section}{\numberline {3}Approach}{ii}}
\@writefile{toc}{\contentsline {subsection}{\numberline {3.1}Dictionary Attacks}{iii}}
\@writefile{toc}{\contentsline {subsection}{\numberline {3.2}Brute-foce and Mask Attacks}{iii}}
\@writefile{toc}{\contentsline {subsection}{\numberline {3.3}Combination Attack}{iv}}
\@writefile{toc}{\contentsline {subsection}{\numberline {3.4}md5\_flip\_sha256}{iv}}
\@writefile{toc}{\contentsline {subsection}{\numberline {3.5}Approach to Analysis}{v}}
\@writefile{toc}{\contentsline {subsection}{\numberline {3.6}Improvements}{v}}
\@writefile{toc}{\contentsline {section}{\numberline {4}Analysis}{v}}
\@writefile{toc}{\contentsline {section}{\numberline {5}Conclusion}{vi}}
